
                     .---.                                         .---.
       __.....__     |   |                                         |   |      __.....__
   .-''         '.   |   |.-.          .-                          |   |  .-''         '.
  /     .-''"'-.  `. |   | \ \        / /          .-,.--.         |   | /     .-''"'-.  `.
 /     /________\   \|   |  \ \      / /           |  .-. |        |   |/     /________\   \
 |                  ||   |   \ \    / /            | |  | | _    _ |   ||                  |    _
 \    .-------------'|   |    \ \  / /             | |  | || '  / ||   |\    .-------------'  .' |
  \    '-.____...---.|   |     \ `  /              | |  '-.' | .' ||   | \    '-.____...---. .   | /
   `.             .' |   |      \  /               | |    /  | /  ||   |  `.             .'.'.'| |//
     `''-...... -'   '---'      / /                | |   |   `'.  |'---'    `''-...... -'.'.'.-'  /
                            |`-' /                 |_|   '   .'|  '/                     .'   \_.'
                             '..'                         `-'  `--'